{
  "image_output_folder": "Please select the output destination folder.",
  "is_image_size_original": true,
  "image_output_size_x": 800,
  "image_output_size_y": 600,
  "is_image_preview_size_original": false,
  "image_preview_size_x": 800,
  "image_preview_size_y": 600,
  "index_for_output": "1",
  "use_psdtool_func": false
}